
1    A = 67.52218 ; B = -259.6

2    A = 70.16359 ; B = -264.0

3    A = 70.03386 ; B = -235.8

4    A = 68.93933 ; B = -224.4

5    A = 70.83295 ; B = -244.7

6    A = 68.75783 ; B = -177.6

7    A = 68.88050 ; B = -321.4

8    A = 69.70291 ; B = -286.7

9    A = 70.10767 ; B = -220.0

10    A = 67.17769 ; B = -273.8

11    A = 69.75503 ; B = -311.7

13    A = 69.67529 ; B = -266.7

14    A = 69.73474 ; B = -301.0

15    A = 71.11844 ; B = -256.0

16    A = 67.99597 ; B = -286.1

17    A = 70.38696 ; B = -289.9

18    A = 69.07152 ; B = -228.9

19    A = 67.86804 ; B = -284.7

20    A = 70.66940 ; B = -276.2

21    A = 71.32117 ; B = -120.2

22    A = 69.03897 ; B = -269.2

23    A = 67.42942 ; B = -303.6

24    A = 70.39945 ; B = -212.1

25    A = 68.00860 ; B = -211.3

26    A = 70.20041 ; B = -259.7

27    A = 70.20874 ; B = -213.6

28    A = 68.62580 ; B = -331.2

29    A = 70.54095 ; B = -287.2

30    A = 70.52562 ; B = -207.8

31    A = 68.43215 ; B = -280.5

32    A = 68.84218 ; B = -266.3

33    A = 69.49817 ; B = -222.2

34    A = 67.63134 ; B = -278.4

35    A = 67.85273 ; B = -231.7

36    A = 68.14429 ; B = -194.5

37    A = 183.06982 ; B = -14589.7

38    A = 70.20757 ; B = -301.9

39    A = 70.35990 ; B = -214.1

40    A = 67.20900 ; B = -307.5

41    A = 69.55623 ; B = -293.1

42    A = 70.32468 ; B = -225.2

43    A = 66.59208 ; B = -335.5

44    A = 69.21033 ; B = -300.9

45    A = 69.78354 ; B = -239.8

46    A = 68.69787 ; B = -274.5

47    A = 69.65457 ; B = -325.0

48    A = 70.39617 ; B = -182.3
