
1    A = 68.70778 ; B = -211.8

2    A = 71.11055 ; B = -371.3

3    A = 70.07639 ; B = -281.3

4    A = 69.32093 ; B = -232.6

5    A = 71.81226 ; B = -332.5

6    A = 68.92046 ; B = -347.1

7    A = 68.54920 ; B = -165.5

8    A = 69.80795 ; B = -252.0

9    A = 69.75149 ; B = -296.2

10    A = 67.14310 ; B = -141.9

11    A = 70.21380 ; B = -329.2

12    A = 70.80390 ; B = -194.6

13    A = 69.17258 ; B = -160.6

14    A = 69.73825 ; B = -284.4

15    A = 70.71657 ; B = -258.7

16    A = 68.31276 ; B = -195.8

17    A = 71.52280 ; B = -335.1

18    A = 69.26862 ; B = -272.3

19    A = 68.36278 ; B = -165.5

20    A = 70.99024 ; B = -286.2

21    A = 71.29490 ; B = -304.3

22    A = 69.43990 ; B = -188.6

23    A = 68.02517 ; B = -255.1

24    A = 69.71606 ; B = -160.8

25    A = 67.94077 ; B = -154.2

26    A = 69.50125 ; B = -260.8

27    A = 70.21360 ; B = -275.8

28    A = 70.02882 ; B = -207.1

29    A = 70.60361 ; B = -268.6

30    A = 69.59806 ; B = -243.0

31    A = 67.85531 ; B = -157.5

32    A = 69.48895 ; B = -322.3

33    A = 68.78383 ; B = -229.4

34    A = 67.48368 ; B = -182.4

35    A = 69.25498 ; B = -328.4

36    A = 68.14226 ; B = -201.6

38    A = 70.12809 ; B = -272.6

39    A = 69.65816 ; B = -227.7

40    A = 66.98276 ; B = -135.6

41    A = 69.49418 ; B = -292.2

42    A = 69.99940 ; B = -267.8

43    A = 66.50461 ; B = -128.8

44    A = 69.44559 ; B = -258.0

45    A = 69.77160 ; B = -203.8

46    A = 68.53160 ; B = -166.4

47    A = 69.70177 ; B = -258.1

48    A = 69.58232 ; B = -199.9
