
1    A = 217.95293 ; B = -12171.4

2    A = 241.33103 ; B = -14453.6

3    A = 69.99043 ; B = -379.9

4    A = 69.71623 ; B = -240.6

5    A = 68.84884 ; B = -223.3

6    A = 69.46764 ; B = -217.5

7    A = 68.68058 ; B = -259.7

8    A = 69.16381 ; B = -259.9

9    A = 233.74485 ; B = -13855.5

10    A = 69.47446 ; B = -246.1

11    A = 68.88078 ; B = -286.6

12    A = 69.79217 ; B = -231.8

13    A = 69.82912 ; B = -201.9

14    A = 70.22926 ; B = -270.0

15    A = 68.28450 ; B = -308.1

16    A = 68.24472 ; B = -254.6

17    A = 217.55614 ; B = -12132.4

18    A = 250.41377 ; B = -15360.5

19    A = 70.43601 ; B = -243.5

20    A = 270.94573 ; B = -16691.4

21    A = 67.94900 ; B = -165.6

22    A = 251.63026 ; B = -15284.1

23    A = 69.36562 ; B = -232.1

24    A = 68.85836 ; B = -173.0

25    A = 251.88958 ; B = -15316.9

26    A = 68.95554 ; B = -218.5

27    A = 70.41139 ; B = -266.2

28    A = 69.09774 ; B = -154.6

29    A = 68.95593 ; B = -154.6

30    A = 219.90961 ; B = -12409.4

31    A = 69.87215 ; B = -238.8

32    A = 70.39960 ; B = -216.0

33    A = 227.85887 ; B = -12768.8

34    A = 286.15196 ; B = -17460.2

35    A = 245.75441 ; B = -14009.4

36    A = 284.88912 ; B = -17139.5

37    A = 69.63323 ; B = -128.0

38    A = 263.60278 ; B = -15605.4

39    A = 69.58600 ; B = -134.5

40    A = 69.17585 ; B = -174.1

41    A = 69.71015 ; B = -69.3

42    A = 69.35682 ; B = -140.1

43    A = 234.97896 ; B = -13590.8

44    A = 68.65084 ; B = -123.2

45    A = 69.44412 ; B = -88.8

46    A = 70.50808 ; B = -168.8

47    A = 69.62755 ; B = -226.6

48    A = 0.00000 ; B = 0.0

49    A = 117.63697 ; B = -1138.1

50    A = 115.92947 ; B = -1249.5

51    A = 131.99443 ; B = -1898.3

52    A = 98.74942 ; B = 131.2

53    A = 88.20370 ; B = 771.9

54    A = 91.35453 ; B = 560.3

55    A = 80.58246 ; B = 1031.6

56    A = 93.54726 ; B = -230.7

57    A = 134.25290 ; B = -2751.3

58    A = 129.22331 ; B = -2601.9

59    A = 126.56634 ; B = -2691.5

60    A = 119.09417 ; B = -2049.7

61    A = 117.43097 ; B = -2273.5

62    A = 122.94832 ; B = -2552.5

63    A = 130.11929 ; B = -3173.0

64    A = 108.05161 ; B = -1890.5
